\relax 
\bbl@beforestart
\babel@aux{english}{}
\citation{osti_1505628}
\citation{security.nl_2010}
\@writefile{toc}{\contentsline {section}{\numberline {1}Preface}{2}\protected@file@percent }
\@writefile{toc}{\contentsline {section}{\numberline {2}Course of action}{2}\protected@file@percent }
\@writefile{toc}{\contentsline {section}{\numberline {3}Preventing}{2}\protected@file@percent }
\@writefile{toc}{\contentsline {section}{\numberline {4}Handled}{3}\protected@file@percent }
\bibdata{references}
\bibcite{security.nl_2010}{1}
\bibcite{osti_1505628}{2}
\bibstyle{plain}
