PWD /home/jort/this/advancedalgorithms/workshops/security/report
INPUT /usr/share/texmf-dist/web2c/texmf.cnf
INPUT /var/lib/texmf/web2c/pdftex/pdflatex.fmt
INPUT securityreport.tex
OUTPUT securityreport.log
INPUT /usr/share/texmf-dist/tex/latex/base/article.cls
INPUT /usr/share/texmf-dist/tex/latex/base/article.cls
INPUT /usr/share/texmf-dist/tex/latex/base/size10.clo
INPUT /usr/share/texmf-dist/tex/latex/base/size10.clo
INPUT /usr/share/texmf-dist/tex/latex/graphics/graphicx.sty
INPUT /usr/share/texmf-dist/tex/latex/graphics/graphicx.sty
INPUT /usr/share/texmf-dist/tex/latex/graphics/keyval.sty
INPUT /usr/share/texmf-dist/tex/latex/graphics/keyval.sty
INPUT /usr/share/texmf-dist/tex/latex/graphics/graphics.sty
INPUT /usr/share/texmf-dist/tex/latex/graphics/graphics.sty
INPUT /usr/share/texmf-dist/tex/latex/graphics/trig.sty
INPUT /usr/share/texmf-dist/tex/latex/graphics/trig.sty
INPUT /usr/share/texmf-dist/tex/latex/graphics-cfg/graphics.cfg
INPUT /usr/share/texmf-dist/tex/latex/graphics-cfg/graphics.cfg
INPUT /usr/share/texmf-dist/tex/latex/graphics-def/pdftex.def
INPUT /usr/share/texmf-dist/tex/latex/graphics-def/pdftex.def
INPUT /usr/share/texmf-dist/tex/latex/lm/lmodern.sty
INPUT /usr/share/texmf-dist/tex/latex/lm/lmodern.sty
INPUT /usr/share/texmf-dist/tex/latex/anyfontsize/anyfontsize.sty
INPUT /usr/share/texmf-dist/tex/latex/anyfontsize/anyfontsize.sty
INPUT /usr/share/texmf-dist/tex/latex/amsfonts/amssymb.sty
INPUT /usr/share/texmf-dist/tex/latex/amsfonts/amssymb.sty
INPUT /usr/share/texmf-dist/tex/latex/amsfonts/amsfonts.sty
INPUT /usr/share/texmf-dist/tex/latex/amsfonts/amsfonts.sty
INPUT /usr/share/texmf-dist/tex/latex/tabto-ltx/tabto.sty
INPUT /usr/share/texmf-dist/tex/latex/tabto-ltx/tabto.sty
INPUT /usr/share/texmf-dist/tex/generic/babel/babel.sty
INPUT /usr/share/texmf-dist/tex/generic/babel/babel.sty
INPUT /usr/share/texmf-dist/tex/generic/babel/switch.def
INPUT /usr/share/texmf-dist/tex/generic/babel-english/english.ldf
INPUT /usr/share/texmf-dist/tex/generic/babel-english/english.ldf
INPUT /usr/share/texmf-dist/tex/generic/babel/babel.def
INPUT /usr/share/texmf-dist/tex/generic/babel/txtbabel.def
INPUT securityreport.aux
INPUT securityreport.aux
OUTPUT securityreport.aux
INPUT /usr/share/texmf-dist/tex/latex/lm/ot1lmr.fd
INPUT /usr/share/texmf-dist/tex/latex/lm/ot1lmr.fd
INPUT /usr/share/texmf-dist/fonts/map/fontname/texfonts.map
INPUT /usr/share/texmf-dist/fonts/tfm/public/lm/rm-lmr10.tfm
INPUT /usr/share/texmf-dist/tex/context/base/mkii/supp-pdf.mkii
INPUT /usr/share/texmf-dist/tex/context/base/mkii/supp-pdf.mkii
INPUT /usr/share/texmf-dist/tex/latex/oberdiek/epstopdf-base.sty
INPUT /usr/share/texmf-dist/tex/latex/oberdiek/epstopdf-base.sty
INPUT /usr/share/texmf-dist/tex/generic/oberdiek/infwarerr.sty
INPUT /usr/share/texmf-dist/tex/generic/oberdiek/infwarerr.sty
INPUT /usr/share/texmf-dist/tex/latex/oberdiek/grfext.sty
INPUT /usr/share/texmf-dist/tex/latex/oberdiek/grfext.sty
INPUT /usr/share/texmf-dist/tex/generic/oberdiek/kvdefinekeys.sty
INPUT /usr/share/texmf-dist/tex/generic/oberdiek/kvdefinekeys.sty
INPUT /usr/share/texmf-dist/tex/generic/oberdiek/ltxcmds.sty
INPUT /usr/share/texmf-dist/tex/generic/oberdiek/ltxcmds.sty
INPUT /usr/share/texmf-dist/tex/latex/oberdiek/kvoptions.sty
INPUT /usr/share/texmf-dist/tex/latex/oberdiek/kvoptions.sty
INPUT /usr/share/texmf-dist/tex/generic/oberdiek/kvsetkeys.sty
INPUT /usr/share/texmf-dist/tex/generic/oberdiek/kvsetkeys.sty
INPUT /usr/share/texmf-dist/tex/generic/oberdiek/etexcmds.sty
INPUT /usr/share/texmf-dist/tex/generic/oberdiek/etexcmds.sty
INPUT /usr/share/texmf-dist/tex/generic/oberdiek/ifluatex.sty
INPUT /usr/share/texmf-dist/tex/generic/oberdiek/ifluatex.sty
INPUT /usr/share/texmf-dist/tex/generic/oberdiek/pdftexcmds.sty
INPUT /usr/share/texmf-dist/tex/generic/oberdiek/pdftexcmds.sty
INPUT /usr/share/texmf-dist/tex/generic/oberdiek/ifpdf.sty
INPUT /usr/share/texmf-dist/tex/generic/oberdiek/ifpdf.sty
INPUT /usr/share/texmf-dist/tex/latex/latexconfig/epstopdf-sys.cfg
INPUT /usr/share/texmf-dist/tex/latex/latexconfig/epstopdf-sys.cfg
INPUT /usr/share/texmf-dist/tex/latex/lm/ot1lmss.fd
INPUT /usr/share/texmf-dist/tex/latex/lm/ot1lmss.fd
INPUT /usr/share/texmf-dist/fonts/tfm/public/lm/rm-lmss10.tfm
INPUT /usr/share/texmf-dist/fonts/tfm/public/lm/rm-lmss17.tfm
INPUT /usr/share/texmf-dist/fonts/tfm/public/lm/rm-lmssbx10.tfm
INPUT /usr/share/texmf-dist/fonts/tfm/public/lm/rm-lmss12.tfm
INPUT /usr/share/texmf-dist/fonts/tfm/public/lm/rm-lmsso12.tfm
INPUT /usr/share/texmf-dist/fonts/tfm/public/lm/rm-lmss12.tfm
INPUT /usr/share/texmf-dist/fonts/tfm/public/lm/rm-lmcsc10.tfm
OUTPUT securityreport.pdf
INPUT /var/lib/texmf/fonts/map/pdftex/updmap/pdftex.map
INPUT /usr/share/texmf-dist/fonts/tfm/public/lm/rm-lmr12.tfm
INPUT /usr/share/texmf-dist/fonts/tfm/public/lm/rm-lmbx12.tfm
INPUT securityreport.toc
INPUT securityreport.toc
INPUT /usr/share/texmf-dist/fonts/tfm/public/lm/rm-lmssbx10.tfm
OUTPUT securityreport.toc
INPUT securityreport.bbl
INPUT securityreport.bbl
INPUT securityreport.aux
INPUT /usr/share/texmf-dist/fonts/enc/dvips/lm/lm-rm.enc
INPUT /usr/share/texmf-dist/fonts/enc/dvips/lm/lm-rmsc.enc
INPUT /usr/share/texmf-dist/fonts/type1/public/amsfonts/cm/cmsy10.pfb
INPUT /usr/share/texmf-dist/fonts/type1/public/lm/lmbx12.pfb
INPUT /usr/share/texmf-dist/fonts/type1/public/lm/lmcsc10.pfb
INPUT /usr/share/texmf-dist/fonts/type1/public/lm/lmr10.pfb
INPUT /usr/share/texmf-dist/fonts/type1/public/lm/lmss10.pfb
INPUT /usr/share/texmf-dist/fonts/type1/public/lm/lmssbx10.pfb
INPUT /usr/share/texmf-dist/fonts/type1/public/lm/lmsso12.pfb
