\begin{thebibliography}{1}

\bibitem{security.nl_2010}
Microsoft waarschuwt voor extreem ernstig windows-lek, Jul 2010.

\bibitem{osti_1505628}
Kevin~E. Hemsley and Dr.~Ronald E.~Fisher.
\newblock History of industrial control system cyber incidents.
\newblock 12 2018.

\end{thebibliography}
