\babel@toc {english}{}
\contentsline {section}{\numberline {1}Preface}{2}% 
\contentsline {section}{\numberline {2}Course of action}{2}% 
\contentsline {section}{\numberline {3}Preventing}{2}% 
\contentsline {section}{\numberline {4}Handled}{3}% 
