\relax 
\bbl@beforestart
\catcode `"\active 
\babel@aux{dutch}{}
\citation{jackson1995world}
\@writefile{toc}{\contentsline {section}{\numberline {1}Inleiding}{2}\protected@file@percent }
\@writefile{toc}{\contentsline {section}{\numberline {2}Requirements en specificaties}{2}\protected@file@percent }
\@writefile{lof}{\contentsline {figure}{\numberline {1}{\ignorespaces requirements vinden we in \emph  {PW}, programma's in \emph  {PM}, en waar ze elkaar overlappen zitten de specificaties.}}{3}\protected@file@percent }
\@writefile{toc}{\contentsline {subsection}{\numberline {2.1}Requirements}{3}\protected@file@percent }
\@writefile{toc}{\contentsline {section}{\numberline {3}Modellen}{3}\protected@file@percent }
\@writefile{toc}{\contentsline {subsection}{\numberline {3.1}De Kripke structuur}{3}\protected@file@percent }
\@writefile{toc}{\contentsline {subsection}{\numberline {3.2}Soorten modellen}{3}\protected@file@percent }
\@writefile{toc}{\contentsline {subsection}{\numberline {3.3}Tijd}{3}\protected@file@percent }
\@writefile{toc}{\contentsline {subsection}{\numberline {3.4}Guards en invarianten}{3}\protected@file@percent }
\@writefile{toc}{\contentsline {subsection}{\numberline {3.5}Deadlock}{3}\protected@file@percent }
\@writefile{toc}{\contentsline {subsection}{\numberline {3.6}Zeno gedrag}{4}\protected@file@percent }
\@writefile{toc}{\contentsline {section}{\numberline {4}Logica}{4}\protected@file@percent }
\@writefile{toc}{\contentsline {subsection}{\numberline {4.1}Propositielogica}{4}\protected@file@percent }
\@writefile{toc}{\contentsline {subsection}{\numberline {4.2}Predicatenlogica}{4}\protected@file@percent }
\@writefile{toc}{\contentsline {subsection}{\numberline {4.3}Kwantoren}{5}\protected@file@percent }
\@writefile{toc}{\contentsline {subsection}{\numberline {4.4}Dualiteiten}{5}\protected@file@percent }
\@writefile{toc}{\contentsline {section}{\numberline {5}Computation tree logic}{5}\protected@file@percent }
\@writefile{toc}{\contentsline {subsection}{\numberline {5.1}De computation tree}{5}\protected@file@percent }
\@writefile{toc}{\contentsline {subsection}{\numberline {5.2}Operator: AG}{5}\protected@file@percent }
\@writefile{toc}{\contentsline {subsection}{\numberline {5.3}Operator: EG}{5}\protected@file@percent }
\@writefile{toc}{\contentsline {subsection}{\numberline {5.4}Operator: AF}{5}\protected@file@percent }
\@writefile{toc}{\contentsline {subsection}{\numberline {5.5}Operator: EF}{5}\protected@file@percent }
\@writefile{toc}{\contentsline {subsection}{\numberline {5.6}Operator: AX}{5}\protected@file@percent }
\@writefile{toc}{\contentsline {subsection}{\numberline {5.7}Operator: EX}{5}\protected@file@percent }
\@writefile{toc}{\contentsline {subsection}{\numberline {5.8}Operator: p U q}{5}\protected@file@percent }
\@writefile{toc}{\contentsline {subsection}{\numberline {5.9}Operator: p R q}{5}\protected@file@percent }
\@writefile{toc}{\contentsline {subsection}{\numberline {5.10}Fairness}{5}\protected@file@percent }
\@writefile{toc}{\contentsline {subsection}{\numberline {5.11}Liveness}{5}\protected@file@percent }
\bibdata{references}
\bibcite{jackson1995world}{1}
\bibstyle{plain}
