\relax 
\bbl@beforestart
\babel@aux{english}{}
\@writefile{toc}{\contentsline {section}{\numberline {1}Preface}{3}\protected@file@percent }
\@writefile{toc}{\contentsline {section}{\numberline {2}Lessons}{3}\protected@file@percent }
\@writefile{toc}{\contentsline {subsection}{\numberline {2.1}System}{3}\protected@file@percent }
\@writefile{toc}{\contentsline {subsection}{\numberline {2.2}Requirements}{3}\protected@file@percent }
\@writefile{toc}{\contentsline {subsection}{\numberline {2.3}Domain knowledge}{3}\protected@file@percent }
\@writefile{toc}{\contentsline {subsection}{\numberline {2.4}Specifications}{4}\protected@file@percent }
\@writefile{toc}{\contentsline {subsection}{\numberline {2.5}4-variable model}{4}\protected@file@percent }
\@writefile{toc}{\contentsline {subsection}{\numberline {2.6}6-variable model}{4}\protected@file@percent }
\@writefile{toc}{\contentsline {subsection}{\numberline {2.7}System requirements}{4}\protected@file@percent }
\@writefile{toc}{\contentsline {subsection}{\numberline {2.8}Software requirements}{5}\protected@file@percent }
\@writefile{toc}{\contentsline {subsection}{\numberline {2.9}Mode confusion}{5}\protected@file@percent }
\@writefile{toc}{\contentsline {subsection}{\numberline {2.10}Paradox of Automatisation}{5}\protected@file@percent }
\@writefile{toc}{\contentsline {subsection}{\numberline {2.11}Propositions}{5}\protected@file@percent }
\@writefile{toc}{\contentsline {subsubsection}{\numberline {2.11.1}Atomic Proposition (AP)}{5}\protected@file@percent }
\@writefile{toc}{\contentsline {subsection}{\numberline {2.12}Kripke structure}{5}\protected@file@percent }
\@writefile{toc}{\contentsline {subsubsection}{\numberline {2.12.1}State}{6}\protected@file@percent }
\@writefile{toc}{\contentsline {paragraph}{\numberline {2.12.1.1}Amount of states}{6}\protected@file@percent }
\@writefile{toc}{\contentsline {paragraph}{\numberline {2.12.1.2}State explosion}{6}\protected@file@percent }
\@writefile{toc}{\contentsline {subsubsection}{\numberline {2.12.2}Transition}{6}\protected@file@percent }
\@writefile{toc}{\contentsline {subsubsection}{\numberline {2.12.3}Labelling function}{7}\protected@file@percent }
\@writefile{toc}{\contentsline {subsection}{\numberline {2.13}Invariant}{7}\protected@file@percent }
\@writefile{toc}{\contentsline {subsection}{\numberline {2.14}Guard}{7}\protected@file@percent }
\@writefile{toc}{\contentsline {subsection}{\numberline {2.15}Zeno behaviour}{7}\protected@file@percent }
\@writefile{toc}{\contentsline {subsection}{\numberline {2.16}Deadlock}{7}\protected@file@percent }
\@writefile{toc}{\contentsline {subsection}{\numberline {2.17}Parallel composition}{7}\protected@file@percent }
\@writefile{toc}{\contentsline {subsection}{\numberline {2.18}What makes a good model?}{8}\protected@file@percent }
\@writefile{toc}{\contentsline {subsection}{\numberline {2.19}C-state}{8}\protected@file@percent }
\@writefile{toc}{\contentsline {subsection}{\numberline {2.20}Temporal logic}{8}\protected@file@percent }
\@writefile{toc}{\contentsline {subsection}{\numberline {2.21}CTL - Computational Tree Logic}{8}\protected@file@percent }
\@writefile{toc}{\contentsline {subsection}{\numberline {2.22}CTL operators}{8}\protected@file@percent }
\@writefile{toc}{\contentsline {subsubsection}{\numberline {2.22.1}AG(p) - Always Globally}{8}\protected@file@percent }
\@writefile{toc}{\contentsline {subsubsection}{\numberline {2.22.2}EG(p) - Exists Globally}{9}\protected@file@percent }
\@writefile{toc}{\contentsline {subsubsection}{\numberline {2.22.3}AF(p) - Always Eventually}{9}\protected@file@percent }
\@writefile{toc}{\contentsline {subsubsection}{\numberline {2.22.4}EF(p) - Exists Eventually}{9}\protected@file@percent }
\@writefile{toc}{\contentsline {subsubsection}{\numberline {2.22.5}AX(p) - Always Next}{9}\protected@file@percent }
\@writefile{toc}{\contentsline {subsubsection}{\numberline {2.22.6}EX(p) - Exists Next}{9}\protected@file@percent }
\@writefile{toc}{\contentsline {subsection}{\numberline {2.23}Special CTL operators}{9}\protected@file@percent }
\@writefile{toc}{\contentsline {subsubsection}{\numberline {2.23.1}A (p U q) - Always p Until q}{9}\protected@file@percent }
\@writefile{toc}{\contentsline {subsubsection}{\numberline {2.23.2}E (p U q) - Exists p Until q}{9}\protected@file@percent }
\@writefile{toc}{\contentsline {subsubsection}{\numberline {2.23.3}A(p R q) - Always p Releases q}{10}\protected@file@percent }
\@writefile{toc}{\contentsline {subsubsection}{\numberline {2.23.4}E(p R q) - Exists p Releases q}{10}\protected@file@percent }
\@writefile{toc}{\contentsline {subsection}{\numberline {2.24}Combined CTL operators}{10}\protected@file@percent }
\@writefile{toc}{\contentsline {subsubsection}{\numberline {2.24.1}AG(EF(p)) - Reachability}{10}\protected@file@percent }
\@writefile{toc}{\contentsline {subsubsection}{\numberline {2.24.2}AG(AF(p)) - Fairness}{10}\protected@file@percent }
\@writefile{toc}{\contentsline {subsubsection}{\numberline {2.24.3}AF(AG(p)) - Ensure always}{10}\protected@file@percent }
\@writefile{toc}{\contentsline {subsubsection}{\numberline {2.24.4}AG(p $\rightarrow $ AF(q)) or p $\leadsto $ q - Liveness}{10}\protected@file@percent }
\citation{bozdag2009therac}
\@writefile{toc}{\contentsline {section}{\numberline {3}Uppaal}{11}\protected@file@percent }
\@writefile{toc}{\contentsline {subsection}{\numberline {3.1}Uppaal limitations}{11}\protected@file@percent }
\@writefile{toc}{\contentsline {subsection}{\numberline {3.2}Verifying}{11}\protected@file@percent }
\@writefile{toc}{\contentsline {section}{\numberline {4}Papers}{11}\protected@file@percent }
\@writefile{toc}{\contentsline {subsection}{\numberline {4.1}Therac-25}{11}\protected@file@percent }
\@writefile{toc}{\contentsline {subsection}{\numberline {4.2}Error messages}{11}\protected@file@percent }
\@writefile{toc}{\contentsline {subsection}{\numberline {4.3}Logging}{11}\protected@file@percent }
\@writefile{toc}{\contentsline {subsection}{\numberline {4.4}Error fixing}{12}\protected@file@percent }
\bibdata{references}
\bibcite{bozdag2009therac}{1}
\bibstyle{plain}
